Scrape raw or agreggated data for Maturita and JPZ exams by CZVV • cermine
…
Basic workflow

Say we want to download all item-level “Maturita” data for 2024. First, we need to load {cermine} and {tidyverse} packages:

library(cermine)
library(tidyverse)

Then we can get the list of individual exam events. Note that all HTTP requests are cached for the current R session, so you don’t have to worry much about hammering the server. If you believe that the data have changed, you can force a refresh by setting the force argument to TRUE or simply restart your R session.

exams <- get_exam_events()
#> ℹ Extracting exam events...✔ Done extracting exam events... [5ms]

exams
#> # A tibble: 27 × 2
#>    project           year                        
#>    <chr>             <chr>                       
#>  1 Maturitní zkoušky 2024 - podzim               
#>  2 Maturitní zkoušky 2024 - Jaro                 
#>  3 Maturitní zkoušky 2023 - Podzim               
#>  4 Maturitní zkoušky 2023 - Jaro                 
#>  5 Maturitní zkoušky 2022 - Podzim               
#>  6 Maturitní zkoušky 2022 - Jaro                 
#>  7 Maturitní zkoušky 2021 - Podzim               
#>  8 Maturitní zkoušky 2021 - Jaro mimořádný termín
#>  9 Maturitní zkoušky 2021 - Jaro                 
#> 10 Maturitní zkoušky 2020 - Podzim               
#> # ℹ 17 more rows
…
